{
    "content": [{
            "id": "123",
            "totalElements": null,
            "size": null,
            "content": null,
            "username": "CTVBH647",
            "fullname": "2 Vốn",
            "gender": 1,
            "email": "",
            "birthday": null,
            "mobi": "",
            "address": "",
            "positionId": 8,
            "positionName": "Nhân viên",
            "departmentId": 676,
            "departmentName": "QNM21 - QNM, P, 211 Lý Thương Kiệt, Hội An."
        },
        {
            "id": "124",
            "totalElements": null,
            "size": null,
            "content": null,
            "username": "AM09",
            "fullname": "AM09",
            "gender": 1,
            "email": "",
            "birthday": "2020-09-22T06:52:06.999+0000",
            "mobi": "",
            "address": "",
            "positionId": 1,
            "positionName": "Giám đốc",
            "departmentId": 600,
            "departmentName": "HPG04 - HPG, H, Núi Đèo 01, Thủy Nguyên"
        },
        {
            "id": "125",
            "totalElements": null,
            "size": null,
            "content": null,
            "username": "attt",
            "fullname": "ATTT ATTT",
            "gender": 0,
            "email": "attt@gmail.com",
            "birthday": "2000-10-22T03:12:23.000+0000",
            "mobi": "0989898989 ",
            "address": "HCM",
            "positionId": 1,
            "positionName": "Giám đốc",
            "departmentId": 1412,
            "departmentName": "Văn phòng chi nhánh HCM"
        },
        {
            "id": "126",
            "totalElements": null,
            "size": null,
            "content": null,
            "username": "000005",
            "fullname": "Anh Vương BGDT",
            "gender": 0,
            "email": "",
            "birthday": "1980-09-01T04:37:02.000+0000",
            "mobi": "",
            "address": "",
            "positionId": 8,
            "positionName": "Nhân viên",
            "departmentId": 902,
            "departmentName": "Trung tâm bán lẻ"
        },
        {
            "id": "127",
            "totalElements": null,
            "size": null,
            "content": null,
            "username": "027712",
            "fullname": "BÙI THỊ HƯƠNG QUẾ",
            "gender": 1,
            "email": "",
            "birthday": "1982-10-29T17:00:00.000+0000",
            "mobi": "0168677686 ",
            "address": "",
            "positionId": 8,
            "positionName": "Nhân viên",
            "departmentId": 418,
            "departmentName": "Phòng ban trung tâm bán lẻ"
        },
        {
            "id": "128",
            "totalElements": null,
            "size": null,
            "content": null,
            "username": "CTVBH626",
            "fullname": "Bá Thị Hoa",
            "gender": 1,
            "email": "",
            "birthday": null,
            "mobi": "",
            "address": "",
            "positionId": 8,
            "positionName": "Nhân viên",
            "departmentId": 591,
            "departmentName": "HYN18 - HYN, H, Dân Tiến 02, Khoái Châu"
        },
        {
            "id": "129",
            "totalElements": null,
            "size": null,
            "content": null,
            "username": "241829",
            "fullname": "Bùi Anh Sơn",
            "gender": 0,
            "email": "sonba1@viettel.com.vn",
            "birthday": null,
            "mobi": "",
            "address": "",
            "positionId": 8,
            "positionName": "Nhân viên",
            "departmentId": 765,
            "departmentName": "TGG15 - TGG, P, 49/2 Ấp Bắc, Mỹ Tho"
        },
        {
            "id": "130",
            "totalElements": null,
            "size": null,
            "content": null,
            "username": "206568",
            "fullname": "Bùi Bảo Chuyên",
            "gender": 0,
            "email": "",
            "birthday": "1993-11-25T17:00:00.000+0000",
            "mobi": "0979973335 ",
            "address": "",
            "positionId": 8,
            "positionName": "Nhân viên",
            "departmentId": 598,
            "departmentName": "HDG21 - HDG, P, Tiền Trung, Hải Dương"
        },
        {
            "id": "131",
            "totalElements": null,
            "size": null,
            "content": null,
            "username": "194097",
            "fullname": "Bùi Chí Công",
            "gender": 0,
            "email": "",
            "birthday": "1991-10-27T17:00:00.000+0000",
            "mobi": "0962417427 ",
            "address": "",
            "positionId": 8,
            "positionName": "Nhân viên",
            "departmentId": 774,
            "departmentName": "AGG01 - AGG, P, 60 Nguyễn Thái Học, Long Xuyên"
        },
        {
            "id": "132",
            "totalElements": null,
            "size": null,
            "content": null,
            "username": "249997",
            "fullname": "Bùi Chí Thiện",
            "gender": 0,
            "email": "thienbc2@viettel.com.vn",
            "birthday": "1997-11-28T17:00:00.000+0000",
            "mobi": "",
            "address": "BTE16",
            "positionId": 8,
            "positionName": "Nhân viên",
            "departmentId": 937,
            "departmentName": "BTE16 – BTE, H, 248/4B Ấp 4, Quới Sơn, Châu Thành"
        }
    ],
    "pageable": {
        "sort": {
            "sorted": false,
            "unsorted": true,
            "empty": true
        },
        "pageNumber": 0,
        "pageSize": 10,
        "offset": 0,
        "paged": true,
        "unpaged": false
    },
    "totalPages": 418,
    "totalElements": 4174,
    "last": false,
    "first": true,
    "sort": {
        "sorted": false,
        "unsorted": true,
        "empty": true
    },
    "numberOfElements": 10,
    "size": 10,
    "number": 0,
    "empty": false
}